1. Vignette ProjectG5 • ProjectG5
…
We will go through the function by looking at each tab one after the other in order to make it easier for someone to understand what is happening.

Basic tab (I am new)

Let’s first look at the function used in our first simple recommendation tab, the newcommer_recom(). In this function we use the user selection from the application to filter the table and return all animes fitting what he wishes. Note that an anime is selected when one of the gender selected appears in it. Here we take the example of a 15 years old, that likes sport and have 30 minutes before him to watch something it will:

Use the age to filter the right age Rating classes

Into those one select all that have Sport as a type

Finally filter for the ones that are 30 minutes or shorter per episode.

ProjectG5::newcommer_recom(anime, 15, "Sport", 30)
#> # A tibble: 315 x 7
#>    Name                      Genders   Type  Episodes Duration Rating Popularity
#>    <chr>                     <chr>     <chr> <chr>       <int> <chr>       <dbl>
#>  1 Haikyu!!                  Comedy, ~ TV    25             24 PG-13~         50
#>  2 Kuroko's Basketball       Comedy, ~ TV    25             24 PG-13~        104
#>  3 Kuroko's Basketball 2     Comedy, ~ TV    25             24 PG-13~        185
#>  4 Free! - Iwatobi Swim Club Slice of~ TV    12             24 PG-13~        189
#>  5 Yuri!!! On ICE            Comedy, ~ TV    12             23 PG-13~        191
#>  6 Kuroko's Basketball 3     Comedy, ~ TV    25             24 PG-13~        232
#>  7 Haikyuu!!: To the Top     Comedy, ~ TV    13             24 PG-13~        276
#>  8 Fighting Spirit           Comedy, ~ TV    75             23 PG-13~        345
#>  9 Chihayafuru               Drama, G~ TV    25             22 PG-13~        389
#> 10 Free! - Eternal Summer    Slice of~ TV    13             24 PG-13~        450
#> # ... with 305 more rows
…
